{
  "variables": [],
  "info": {
    "name": "Demo Auth",
    "_postman_id": "c840bfc8-019f-9557-a479-d0f57b908e0e",
    "description": "",
    "schema": "https://schema.getpostman.com/json/collection/v2.0.0/collection.json"
  },
  "item": [
    {
      "name": "register",
      "request": {
        "url": "localhost:8180/secure/user/",
        "method": "POST",
        "header": [],
        "body": {
          "mode": "formdata",
          "formdata": [
            {
              "key": "first_name",
              "value": "test",
              "description": "",
              "type": "text"
            },
            {
              "key": "last_name",
              "value": "test",
              "description": "",
              "type": "text"
            },
            {
              "key": "user_name",
              "value": "test",
              "description": "",
              "type": "text"
            },
            {
              "key": "password",
              "value": "12345",
              "description": "",
              "type": "text"
            }
          ]
        },
        "description": ""
      },
      "response": []
    },
    {
      "name": "list",
      "request": {
        "url": "localhost:8180/secure/user/list",
        "method": "POST",
        "header": [],
        "body": {
          "mode": "formdata",
          "formdata": [
            {
              "key": "page",
              "value": "",
              "description": "",
              "type": "text",
              "disabled": true
            },
            {
              "key": "size",
              "value": "",
              "description": "",
              "type": "text",
              "disabled": true
            },
            {
              "key": "lastId",
              "value": "",
              "description": "",
              "type": "text",
              "disabled": true
            }
          ]
        },
        "description": ""
      },
      "response": []
    },
    {
      "name": "delete",
      "request": {
        "url": "localhost:8180/secure/user/del",
        "method": "POST",
        "header": [],
        "body": {
          "mode": "formdata",
          "formdata": [
            {
              "key": "user_name",
              "value": "test",
              "description": "",
              "type": "text"
            }
          ]
        },
        "description": ""
      },
      "response": []
    },
    {
      "name": "login",
      "request": {
        "url": "localhost:8180/login",
        "method": "POST",
        "header": [],
        "body": {
          "mode": "formdata",
          "formdata": [
            {
              "key": "username",
              "value": "xtreme",
              "description": "",
              "type": "text"
            },
            {
              "key": "password",
              "value": "12345",
              "description": "",
              "type": "text"
            }
          ]
        },
        "description": ""
      },
      "response": []
    }
  ]
}